[
  {
    "id": 1,
    "name": "Agro"
  },
  {
    "id": 2,
    "name": "Aviation"
  },
  {
    "id": 3,
    "name": "Biotech"
  },
  {
    "id": 4,
    "name": "Eco"
  },
  {
    "id": 5,
    "name": "Ecommerce"
  },
  {
    "id": 6,
    "name": "Education"
  },
  {
    "id": 7,
    "name": "Fashion"
  },
  {
    "id": 8,
    "name": "Fintech"
  },
  {
    "id": 9,
    "name": "Food"
  },
  {
    "id": 10,
    "name": "Games"
  }

]
